{
    "KPlugin": {
        "Authors": [
            {
                "Email": "mgraesslin@kde.org",
                "Name": "Martin Gräßlin",
                "Name[ar]": "مارتن جراجلين",
                "Name[bg]": "Martin Gräßlin",
                "Name[ca]": "Martin Gräßlin",
                "Name[es]": "Martin Gräßlin",
                "Name[eu]": "Martin Gräßlin",
                "Name[fr]": "Martin Gräßlin",
                "Name[ka]": "მარტინ გრესსლინი",
                "Name[nl]": "Martin Gräßlin",
                "Name[pt]": "Martin Gräßlin",
                "Name[sl]": "Martin Gräßlin",
                "Name[tr]": "Martin Gräßlin",
                "Name[uk]": "Martin Gräßlin",
                "Name[x-test]": "xxMartin Gräßlinxx"
            }
        ],
        "Description": "An on screen display indicating the desktop change",
        "Description[ar]": "عرض تنبيه على الشاشة يشير إلى تغيير سطح المكتب",
        "Description[bg]": "Екранен надпис, показващ промяната на работния плот",
        "Description[ca]": "Un missatge a la pantalla indicant el canvi d'escriptori",
        "Description[es]": "Un visor sobre la pantalla para indicar el cambio de escritorio",
        "Description[eu]": "Mahaigain-aldaketa adierazten duen pantailako azalpena",
        "Description[fr]": "Une incrustation vidéo indiquant un changement de bureau",
        "Description[nl]": "Een on screen display (OSD) die de wijziging van het bureaublad aangeeft",
        "Description[pt]": "Uma visualização no ecrã que indica a mudança de ecrã",
        "Description[sl]": "Prikaz na zasloni, ki nakazuje spremembo namizja",
        "Description[tr]": "Masaüstü değişikliğini belirten bir ekran üzeri görünümü",
        "Description[uk]": "Екранна панель спостереження за зміною стільниць",
        "Description[x-test]": "xxAn on screen display indicating the desktop changexx",
        "Icon": "preferences-system-windows-script-test",
        "Id": "desktopchangeosd",
        "License": "GPL",
        "Name": "Desktop Change OSD",
        "Name[ar]": "تنبيه على الشاشة حين تغير سطح المكتب",
        "Name[bg]": "Екранен надпис за промяна на работния плот",
        "Name[ca]": "OSD al canvi d'escriptori",
        "Name[es]": "OSD de cambio de escritorio",
        "Name[eu]": "Mahaigain-aldaketari buruzko OSD",
        "Name[fr]": "Incrustation vidéo pour le changement de bureau",
        "Name[ka]": "OSD სამუშაო მაგიდის ცვლილებისას",
        "Name[nl]": "OSD voor bureaubladwijziging",
        "Name[pt]": "OSD de Mudança do Ecrã",
        "Name[sl]": "Sprememba namizja OSD",
        "Name[tr]": "OSD Masaüstü Değişimi",
        "Name[uk]": "Панель зміни стільниць",
        "Name[x-test]": "xxDesktop Change OSDxx",
        "ServiceTypes": [
            "KWin/Script"
        ],
        "Version": "1.0"
    },
    "X-KWin-Exclude-Listing": "true",
    "X-Plasma-API": "declarativescript",
    "X-Plasma-MainScript": "ui/main.qml"
}
