{
    "KPlugin": {
        "Authors": [
            {
                "Email": "thomas.luebking@gmail.com",
                "Name": "Thomas Lübking",
                "Name[ar]": "توماس لوبكينج",
                "Name[bg]": "Thomas Lübking",
                "Name[ca]": "Thomas Lübking",
                "Name[es]": "Thomas Lübking",
                "Name[eu]": "Thomas Lübking",
                "Name[fr]": "Thomas Lübking",
                "Name[ka]": "Thomas Lübking",
                "Name[nl]": "Thomas Lübking",
                "Name[pt]": "Thomas Lübking",
                "Name[sl]": "Thomas Lübking",
                "Name[tr]": "Thomas Lübking",
                "Name[uk]": "Thomas Lübking",
                "Name[x-test]": "xxThomas Lübkingxx"
            }
        ],
        "Description": "Adds a shortcut to minimize and restore all windows",
        "Description[ar]": "يضيف اختصارًا لتصغير جميع النوافذ واستعادتها",
        "Description[bg]": "Добавя клавишна комбинация за минимизиране и възстановяване на всички прозорци",
        "Description[ca]": "Afegeix una drecera per a minimitzar i restaurar totes les finestres",
        "Description[es]": "Añade un acceso rápido de teclado para minimizar y restaurar todas las ventanas",
        "Description[eu]": "Lasterbide bat eransten du leiho guztiak minimizatzeko eta lehengoratzeko",
        "Description[fr]": "Ajoute un raccourci pour minimiser et restaurer toutes les fenêtres",
        "Description[nl]": "Voegt een sneltoets toe om alle vensters te minimaliseren en te herstellen",
        "Description[pt]": "Adicionar um atalho para minimizar e repor todas as janelas",
        "Description[sl]": "Doda bližnjico za pomanjšanje in obnovitev vseh oken",
        "Description[tr]": "Tüm pencereleri simge durumuna küçültmek veya ekranı kaplamaları için bir kısayol ekler",
        "Description[uk]": "Додає скорочення мінімізації усіх вікон або скасування такої мінімізації для усіх вікон",
        "Description[x-test]": "xxAdds a shortcut to minimize and restore all windowsxx",
        "Icon": "preferences-system-windows-script-test",
        "Id": "minimizeall",
        "License": "GPL",
        "Name": "MinimizeAll",
        "Name[ar]": "صغّر الكل",
        "Name[bg]": "Минимизиране всички",
        "Name[ca]": "MinimitzaTot",
        "Name[es]": "Minimizar todo",
        "Name[eu]": "Minimizatu denak",
        "Name[fr]": "Tout minimiser",
        "Name[ka]": "ყველას ჩაკეცვა",
        "Name[nl]": "Alles-minimaliseren",
        "Name[pt]": "Maximizar Tudo",
        "Name[sl]": "Pomanjšaj vse",
        "Name[tr]": "Tümünü Simge Durumuna Küçült",
        "Name[uk]": "Мінімізувати усі",
        "Name[x-test]": "xxMinimizeAllxx",
        "ServiceTypes": [
            "KWin/Script"
        ],
        "Version": "1.0"
    },
    "X-KDE-PluginKeyword": "minimizeall",
    "X-KWin-Border-Activate": "true",
    "X-Plasma-API": "javascript",
    "X-Plasma-MainScript": "code/main.js"
}
